{
    "fluentMethods": true,
    "clientRootFolder": "",
    "relationships": [],
    "fields": [
        {
            "fieldName": "mainProductName",
            "fieldType": "String"
        },
        {
            "fieldName": "mainProductId",
            "fieldType": "String"
        },
        {
            "fieldName": "hlrProfilId",
            "fieldType": "String"
        },
        {
            "fieldName": "profileClass",
            "fieldType": "String"
        }
    ],
    "changelogDate": "20190722085242",
    "dto": "mapstruct",
    "searchEngine": false,
    "service": "serviceImpl",
    "entityTableName": "main_products_cbs",
    "databaseType": "sql",
    "jpaMetamodelFiltering": false,
    "pagination": "pagination"
}
