{
    "fluentMethods": true,
    "clientRootFolder": "",
    "relationships": [],
    "fields": [
        {
            "fieldName": "imsi",
            "fieldType": "String",
            "fieldValidateRules": [
                "required"
            ]
        },
        {
            "fieldName": "services",
            "fieldType": "Roaming4gEnum",
            "fieldValues": "F4G_ROAMING,NO_4G_ROAMING",
            "fieldValidateRules": [
                "required"
            ]
        },
        {
            "fieldName": "processingStatus",
            "fieldType": "ProcessingStatus",
            "fieldValues": "SUBMITTED,SUCCEEDED,FAILED"
        }
    ],
    "changelogDate": "20200901121044",
    "dto": "mapstruct",
    "searchEngine": false,
    "service": "serviceImpl",
    "entityTableName": "roaming4g",
    "databaseType": "sql",
    "jpaMetamodelFiltering": false,
    "pagination": "pagination"
}
