id;msisdn;services
1;mobile Fish;NOVOICE_NODATA
2;Trace;NOVOICE_DATA
3;Tasty Metal Bacon;VOICE_NODATA
4;Home Loan Account;VOICE_NODATA
5;Namibia;NOVOICE_NODATA
6;Multi-channelled Licensed;NOVOICE_DATA
7;Canyon HDD;NOVOICE_NODATA
8;envisioneer Music Public-key;NOVOICE_DATA
9;Investment Account;NOVOICE_DATA
10;copy convergence;NOVOICE_NODATA
