code;label;method_to_invoke
CALL_WAITING;CALL_WAITING;changeServiceCallWaiting
CLIP;CLIP;changeServiceCLIP
GPRS;GPRS : Internet Mobile;changeServiceGPRS
RBT;RBT;changeServiceRBT
CALL_BARRING;CALL_BARRING (Postpaid);changeServiceBarringOutgoing
SUSPINCOMING;SUSPINCOMING : Suspension des appels entrants;changeServiceBarringIncoming
REDLISTPERMANENT;Liste Rouge Permanente;changeServiceListRougePermanent
SUSPOUTGOING;SUSPOUTGOING : Suspension des appels sortants;changeServiceBarringOutgoing
REDLISTTEMPNOTRESTRICT;Liste Rouge Temporaire Non Restreinte;changeServiceListRougeNormal
PARTIAL_BLOCK;PARTIAL_BLOCK;changeServiceBarringOutgoing
FULL_BLOCK;FULL_BLOCK;changeServiceBarringALL
REDLISTTEMPRESTRICT;Liste Rouge Temporaire restreinte;changeServiceListRougeNormal
VMS;VMS : Messagerie Vocale;changeServiceVMS
MULTI_PARTY;Conference Call;changeServiceConfCall
CALL_FORWARD;Transfert d'appel;changeServiceCallFowarding
VMS_KIRUSA;Boǩte vocale KIRUSA;
3G_A;Service 3G profil 21M;
SIMBOX;SIMBOX - Suspension fraudes appels internationaux;changeServiceBarringALL
USSD1;USSD1 - Profil 1 des codes USSD;
TOPOSTPAID;Changer en POSTPAID au HLR uniquement;changeToPostpaid
TOPREPAID;Changer en PREPAID au HLR uniquement;changeToPrepaid
EPIN1;EPIN1 - Profil USSD pour les EPIN;changeToEPIN
USSDTEST;USSDTEST - Profil USSD de test;
PDPCP;PDPCP : APN WEB & WAP & MMS;
SUSPEND;FULL_SUSPENSION : Suspension appels & SMS & Internet;changeServiceFullSuspension
ROAMING_POSTPAID_ONLY_VOICE;Roaming Postpaid Voice, No Data;
ROAMING_POSTPAID_ONLY_DATA;Roaming Postpaid Data, No Voice;
ROAMING_PREPAID_ONLY_VOICE;Roaming Prepaid Voice, No Data;
ROAMING_PREPAID_ONLY_DATA;Roaming Prepaid Data, No Voice;
ROAMING_POSTPAID_VOICE_AND_DATA;Roaming Postpaid Voice and Data;
ROAMING_POSTPAID_NO_VOICE_NO_DATA;Roaming Postpaid No Voice, No Data;
ROAMING_PREPAID_NO_VOICE_NO_DATA;Roaming Prepaid No Voice, No Data;
ROAMING_PREPAID_VOICE_AND_DATA;Roaming Prepaid Voice and Data;
